1,ASPIRIN,Update Desc,200,1.5,Headache,8-May-18,8-May-18
2,PARACETAMOL,Description2,5,3.5,Fever,8-May-18,8-May-18
3,LIOFEN,Description3,1700,75.0,Pain,8-May-18,8-May-18
4,COREX,Description4,700,55.0,Cough,8-May-18,8-May-18
5,LOX,Description,425,32.56,Burn,9-May-18,9-May-18
6,DRUGOFLAME,Description9,410,350.0,Pain,9-May-18,9-May-18
7,TOMBIFLAME,descrip,15,12.0,fever,9-May-18,16-May-18
8,CITRAZINE,descrip,140,112.0,fever,9-May-18,16-May-18
9,RANBAXY,pain release,160,120.0,pain,9-May-18,16-May-18
10,NEW MEDICINE,pain release,159,120.0,pain,9-May-18,16-May-18  
