ID,Med_name,med_desc,mrp,cost,disease,creation_date,update_date
1,Aspirin,Update Desc,200,1.5,Headache,8-May-18,8-May-18
2,Paracetamol,Description2,5,3.5,Fever,8-May-18,8-May-18
3,Liofen,Description3,700,75,Pain,8-May-18,8-May-18
4,Corex,Description4,700,55,Cough,8-May-18,8-May-18
5,Lox,Description,425,32.56,Burn,9-May-18,9-May-18
6,Drugoflame,Description9,410,350,Pain,9-May-18,9-May-18
7,tombiflame,descrip,15,12,fever,9-May-18,16-May-18
8,citrazine,descrip,140,112,fever,9-May-18,16-May-18
9,Ranbaxy,pain release,160,120,pain,9-May-18,16-May-18
10,New medicine,pain release,159,120,pain,9-May-18,16-May-18  